[
  {
    "directory": "/home/gcp202109_hello06/meson_tutorial/builddir",
    "command": "cc  -Idemo@exe -I. -I.. -fdiagnostics-color=always -pipe -D_FILE_OFFSET_BITS=64 -Wall -Winvalid-pch -O0 -g -MD -MQ 'demo@exe/main.c.o' -MF 'demo@exe/main.c.o.d' -o 'demo@exe/main.c.o' -c ../main.c",
    "file": "../main.c"
  }
]
